module gitlab.com/apinest/apinest

go 1.15

require (
	github.com/TwinProduction/go-color v1.0.0
	github.com/davecgh/go-spew v1.1.1 // indirect
	github.com/dgrijalva/jwt-go v3.2.0+incompatible
	github.com/kr/pretty v0.1.0 // indirect
	github.com/stretchr/testify v1.5.1
	gopkg.in/check.v1 v1.0.0-20180628173108-788fd7840127 // indirect
	gopkg.in/yaml.v2 v2.2.4 // indirect
)
